…
``` r
AmesHousing::ames_raw %>% 
  filter(is.na(`Garage Type`)) %>% 
  select(`Garage Type`, `Garage Cars`, `Garage Area`)
```

    ## # A tibble: 157 x 3
    ##    `Garage Type` `Garage Cars` `Garage Area`
    ##    <chr>                 <int>         <int>
    ##  1 <NA>                      0             0
    ##  2 <NA>                      0             0
    ##  3 <NA>                      0             0
    ##  4 <NA>                      0             0
    ##  5 <NA>                      0             0
    ##  6 <NA>                      0             0
    ##  7 <NA>                      0             0
    ##  8 <NA>                      0             0
    ##  9 <NA>                      0             0
    ## 10 <NA>                      0             0
    ## # … with 147 more rows
…
Categorical feature engineering
-------------------------------

-   **Lumping**: Sometimes features will contain levels that have very
    few observations. Sometimes we can benefit from collapsing, or
    “lumping” these into a lesser number of categories. In the above
    examples, we may want to collapse all levels that are observed in
    less than 10% of the training sample into an “other” category. We
    can use `step_other()` to do so

``` r
count(ames_train, Neighborhood) %>% arrange(n)
```

    ## # A tibble: 28 x 2
    ##    Neighborhood            n
    ##    <fct>               <int>
    ##  1 Landmark                1
    ##  2 Green_Hills             2
    ##  3 Greens                  5
    ##  4 Blueste                 8
    ##  5 Briardale              15
    ##  6 Northpark_Villa        15
    ##  7 Veenker                17
    ##  8 Bloomington_Heights    21
    ##  9 Meadow_Village         29
    ## 10 Clear_Creek            31
    ## # … with 18 more rows

``` r
# lump levels for two features
lumping <- recipe(Sale_Price ~ ., data = ames_train) %>%
  step_other(Neighborhood, threshold = .01, other = "other") %>%
  step_other(Screen_Porch, threshold = .1, other = ">0")


apply_2_training <- prep(lumping, training = ames_train) %>%
  bake(ames_train)

count(apply_2_training, Neighborhood) %>% arrange(n)
```

    ## # A tibble: 22 x 2
    ##    Neighborhood                                n
    ##    <fct>                                   <int>
    ##  1 Bloomington_Heights                        21
    ##  2 Meadow_Village                             29
    ##  3 Clear_Creek                                31
    ##  4 South_and_West_of_Iowa_State_University    32
    ##  5 Stone_Brook                                34
    ##  6 Northridge                                 50
    ##  7 Timberland                                 54
    ##  8 other                                      63
    ##  9 Iowa_DOT_and_Rail_Road                     66
    ## 10 Crawford                                   76
    ## # … with 12 more rows
…
