…
    ##                 2.5 %     97.5 %
    ## (Intercept) 7500.7199 22561.9985
    ## Gr_Liv_Area  105.8347   115.3523

``` r
model2 <- update(model1, . ~ . + Year_Built)
```

``` r
model3 <- lm(Sale_Price ~., data = ames_train) 
# print estimated coefficients in a tidy data frame
broom::tidy(model3)  
```

    ## # A tibble: 292 x 5
    ##    term                                estimate std.error statistic p.value
    ##    <chr>                                  <dbl>     <dbl>     <dbl>   <dbl>
    ##  1 (Intercept)                          -7.86e6 10334127.    -0.761   0.447
    ##  2 MS_SubClassOne_Story_1945_and_Older   2.62e3     3466.     0.755   0.450
    ##  3 MS_SubClassOne_Story_with_Finished…   6.60e3     9774.     0.676   0.499
    ##  4 MS_SubClassOne_and_Half_Story_Unfi…   2.13e4    17985.     1.19    0.236
    ##  5 MS_SubClassOne_and_Half_Story_Fini…   6.62e3     5949.     1.11    0.266
    ##  6 MS_SubClassTwo_Story_1946_and_Newer   9.05e2     5468.     0.165   0.869
    ##  7 MS_SubClassTwo_Story_1945_and_Older   6.10e3     6003.     1.02    0.310
    ##  8 MS_SubClassTwo_and_Half_Story_All_…   1.56e4    11110.     1.41    0.160
    ##  9 MS_SubClassSplit_or_Multilevel       -7.39e3    10683.    -0.692   0.489
    ## 10 MS_SubClassSplit_Foyer               -2.43e3     7196.    -0.337   0.736
    ## # … with 282 more rows
…
